Pengaruh Tarif Impor terhadap Volume Impor Produk Elektronik di Indonesia (2018-2023)
…
Metode yang dipilih adalah regresi univariat atau Ordinary Least Square (OLS) dengan 1 variabel independen. Penelitian ini bertujuan untuk mencari hubungan antara volume impor dan tarif impor. Spesifikasi yang dilakukan adalah:

\[
y_{t}=\beta_0 + \beta_1 x_t+\mu_t
\] di mana \(y_t\) adalah volume impor dan \(x_t\) adalah tarif impor.

4 Pembahasan

4.1 Pembahasan Masalah

data <- read_excel("Impor Mesin_Perlengkapan Elektrik dan Bagiannya Menurut Negara Asal Utama, 2018-2023.xlsx")

data

# A tibble: 66 × 4
   Tahun Negara          `Volume Impor` `Tarif Impor`
   <dbl> <chr>                    <dbl>         <dbl>
 1  2018 Tiongkok1                729.         10120.
 2  2018 Singapura                 53.3         1708.
 3  2018 Taiwan                    16.3          499.
 4  2018 Jepang                    58.5         1707.
 5  2018 Korea Selatan             41.6         1077 
 6  2018 Vietnam                   29.9          882.
 7  2018 Thailand                  35.7          752.
 8  2018 Filipina                   7            274 
 9  2018 Malaysia                  25.9          762.
10  2018 Amerika Serikat           12.5          390.
# ℹ 56 more rows
…
